<?xml version="1.0" encoding="UTF-8" standalone="no"?>
<svg
   xmlns:dc="http://purl.org/dc/elements/1.1/"
   xmlns:cc="http://creativecommons.org/ns#"
   xmlns:rdf="http://www.w3.org/1999/02/22-rdf-syntax-ns#"
   xmlns:svg="http://www.w3.org/2000/svg"
   xmlns="http://www.w3.org/2000/svg"
   xmlns:sodipodi="http://sodipodi.sourceforge.net/DTD/sodipodi-0.dtd"
   xmlns:inkscape="http://www.inkscape.org/namespaces/inkscape"
   viewBox="0 0 43.81 31.09"
   version="1.1"
   id="svg12"
   sodipodi:docname="camoff.svg"
   inkscape:version="1.0.2 (e86c870879, 2021-01-15)">
  <metadata
     id="metadata16">
    <rdf:RDF>
      <cc:Work
         rdf:about="">
        <dc:format>image/svg+xml</dc:format>
        <dc:type
           rdf:resource="http://purl.org/dc/dcmitype/StillImage" />
        <dc:title></dc:title>
      </cc:Work>
    </rdf:RDF>
  </metadata>
  <sodipodi:namedview
     pagecolor="#ffffff"
     bordercolor="#666666"
     borderopacity="1"
     objecttolerance="10"
     gridtolerance="10"
     guidetolerance="10"
     inkscape:pageopacity="0"
     inkscape:pageshadow="2"
     inkscape:window-width="1603"
     inkscape:window-height="1067"
     id="namedview14"
     showgrid="false"
     inkscape:zoom="9.2908691"
     inkscape:cx="-1.1254473"
     inkscape:cy="18.587906"
     inkscape:window-x="384"
     inkscape:window-y="163"
     inkscape:window-maximized="0"
     inkscape:current-layer="svg12" />
  <defs
     id="defs4">
    <style
       id="style2">.cls-1{fill:#a2b79e;}</style>
  </defs>
  <path
     class="cls-1"
     d="M 33.33,10.39 V 20 a 48,48 0 0 0 6.26,3.27 c 2.29,1 2.9,1 3.35,0.73 0.45,-0.27 0.49,-1 0.8,-6.4 0,-0.47 0.07,-1.34 0.07,-2.46 0,-1 0,-1.67 -0.07,-2.34 -0.25,-4.87 -0.4,-5.33 -0.8,-5.61 -0.56,-0.38 -1.3,-0.21 -2.51,0.18 a 41.52,41.52 0 0 0 -7.1,3.02 z"
     id="path6"
     style="fill:#b76c67;fill-opacity:1" />
  <path
     class="cls-1"
     d="M 23,31.09 H 8 a 8,8 0 0 1 -8,-8 V 8.1 A 8.53,8.53 0 0 1 2.34,2.44 8.94,8.94 0 0 1 9.81,0.09 H 23 a 8,8 0 0 1 8,8 v 15 a 8,8 0 0 1 -8,8 z"
     id="path8"
     style="fill:#b76c67;fill-opacity:1" />
</svg>
