<?xml version="1.0" encoding="UTF-8" standalone="no"?>
<svg
   xmlns:dc="http://purl.org/dc/elements/1.1/"
   xmlns:cc="http://creativecommons.org/ns#"
   xmlns:rdf="http://www.w3.org/1999/02/22-rdf-syntax-ns#"
   xmlns:svg="http://www.w3.org/2000/svg"
   xmlns="http://www.w3.org/2000/svg"
   xmlns:sodipodi="http://sodipodi.sourceforge.net/DTD/sodipodi-0.dtd"
   xmlns:inkscape="http://www.inkscape.org/namespaces/inkscape"
   version="1.1"
   x="0px"
   y="0px"
   viewBox="0 0 80 80"
   style="enable-background:new 0 0 80 80;"
   xml:space="preserve"
   id="svg54"
   sodipodi:docname="file-word.svg"
   inkscape:version="1.0.2 (e86c870879, 2021-01-15)"><metadata
   id="metadata60"><rdf:RDF><cc:Work
       rdf:about=""><dc:format>image/svg+xml</dc:format><dc:type
         rdf:resource="http://purl.org/dc/dcmitype/StillImage" /><dc:title></dc:title></cc:Work></rdf:RDF></metadata><defs
   id="defs58">
	
	

		
		
		
		
		
		
		
	
			
		
			
		
			
		
			
		
			
		
				
			
				
			
				
			
				
			</defs><sodipodi:namedview
   pagecolor="#ffffff"
   bordercolor="#666666"
   borderopacity="1"
   objecttolerance="10"
   gridtolerance="10"
   guidetolerance="10"
   inkscape:pageopacity="0"
   inkscape:pageshadow="2"
   inkscape:window-width="1280"
   inkscape:window-height="1376"
   id="namedview56"
   showgrid="false"
   inkscape:pagecheckerboard="true"
   inkscape:zoom="7.221328"
   inkscape:cx="33.708984"
   inkscape:cy="41.496606"
   inkscape:window-x="0"
   inkscape:window-y="27"
   inkscape:window-maximized="0"
   inkscape:current-layer="svg54" />
<style
   type="text/css"
   id="style2">
	.st0{fill:none;stroke:#9EB99D;stroke-width:3;stroke-miterlimit:10;}
	.st1{fill:none;stroke:#9BB89B;stroke-width:3;stroke-miterlimit:10;}
	.st2{fill:none;stroke:#607882;stroke-width:3;stroke-miterlimit:10;}
	.st3{fill:#9EB99D;stroke:#9EB99D;stroke-width:3;stroke-miterlimit:10;}
	.st4{fill:#9EB99D;}
	.st5{fill:#607882;stroke:#607882;stroke-width:3;stroke-miterlimit:10;}
	.st6{fill:none;stroke:#9EB99D;stroke-width:3;stroke-linecap:round;stroke-miterlimit:10;}
	.st7{fill:#607882;}
	.st8{fill:#FFFFFF;}
</style>
<g
   id="Layer_1">
</g>
<g
   id="Product">
</g>
<g
   id="Market">
</g>
<g
   id="Business_Model">
</g>
<g
   id="Team">
</g>
<g
   id="Implement">
</g>
<g
   id="PDF">
</g>
<g
   id="Word">
</g>
<g
   id="PPTX">
</g>
<g
   id="PNG">
</g>
<g
   id="Side_2">
	<g
   id="Billeder">
	</g>
	<g
   id="Marketplace">
	</g>
</g>
<path
   class="st8"
   d="M 52.397113,75.807066 H 9.955156 c -3.890513,0 -7.07366,-3.20339 -7.07366,-7.11863 L 2.752895,18.178139 17.854473,3.5891364 l 40.350115,0.350611 1.90554,4.934175 -0.639355,59.8145136 c -0.04185,3.91502 -3.183147,7.11863 -7.07366,7.11863 z"
   id="path8145"
   style="fill:#ffffff;stroke-width:0.709611"
   sodipodi:nodetypes="sssccccss" /><path
   class="st0"
   d="m 58.949806,62.331289 c 0,3.021715 -0.120868,5.559956 -0.241737,7.372986 -0.241737,4.351271 -0.725212,5.439088 -1.450424,6.1643 -0.725211,0.604343 -2.054766,0.604343 -4.834745,0.604343 -3.50519,0.120869 -5.922562,-0.241737 -7.614723,-0.241737 -2.296504,-0.120869 -3.021716,0 -9.911228,0 -8.460804,0.120868 -14.866841,0.120868 -19.943323,0 -3.746928,-0.120869 -3.867796,-0.241737 -5.9225635,-0.120869 -3.021716,0.120869 -3.50519,0.362606 -4.230402,-0.120868 -1.4504235,-0.846081 -1.5712922,-3.021716 -1.5712922,-9.427753 0,-4.230402 0.1208687,-6.768644 0.1208687,-9.427753 V 46.134892 36.223665 C 3.350237,31.751526 3.2293683,25.345489 2.8667624,17.24729 7.9432445,12.654283 13.019728,8.1821434 17.975341,3.5891364 c 14.866842,0.725211 21.998091,0.604343 25.62415,0.362605 2.296503,-0.120868 4.593007,-0.120868 6.889511,-0.241737 4.713877,-0.362606 6.285169,-0.7252116 7.493855,0.241737 0.725212,0.604344 0.966949,1.450424 0.966949,6.5269056 0,3.867796 0,7.735592 -0.120868,11.603389 -0.120869,2.296503 0.120868,39.040567 0.120868,40.249253"
   id="path19"
   style="stroke:#28acba;stroke-opacity:1"
   sodipodi:nodetypes="cccccccccsscscccccscc" /><path
   class="st0"
   d="m 17.854473,3.5891364 c 0,4.955613 0.120868,10.0320956 0.120868,14.9877086 -3.142584,-0.120868 -6.285168,-0.120868 -9.5486215,-0.241737 -1.692161,0 -3.50519,-0.120869 -5.1973512,-0.120869"
   id="path21"
   style="stroke:#28acba;stroke-opacity:1" /><path
   class="st7"
   d="M 51.455951,56.408726 44.324702,31.509789 h 6.526906 l 4.230402,16.921607 4.593008,-16.921607 h 4.230402 l 4.593008,16.921607 4.109533,-16.921607 h 6.526906 L 72.003618,56.408726 H 65.476712 L 61.608916,42.750571 57.861989,56.408726 Z"
   id="path23"
   style="fill:#412a6c;fill-opacity:1;stroke-width:1.20869" /><path
   class="st7"
   d="m 13.624071,31.268051 c 6.406037,0 12.812074,0 19.218112,0 2.296504,0 2.296504,-3.626059 0,-3.626059 -6.406038,0 -12.812075,0 -19.218112,0 -2.296504,0 -2.296504,3.626059 0,3.626059 z"
   id="path27"
   style="fill:#412a6c;fill-opacity:1;stroke:none;stroke-width:1.20869;stroke-opacity:1" /><path
   class="st7"
   d="m 13.624071,42.025359 c 6.406037,0 12.812074,0 19.218112,0 2.296504,0 2.296504,-3.626059 0,-3.626059 -6.406038,0 -12.812075,0 -19.218112,0 -2.296504,0 -2.296504,3.626059 0,3.626059 z"
   id="path33"
   style="fill:#412a6c;fill-opacity:1;stroke:none;stroke-width:1.20869;stroke-opacity:1" /><path
   class="st7"
   d="m 13.624071,52.782667 c 6.406037,0 12.812074,0 19.218112,0 2.296504,0 2.296504,-3.626059 0,-3.626059 -6.406038,0 -12.812075,0 -19.218112,0 -2.296504,0 -2.296504,3.626059 0,3.626059 z"
   id="path39"
   style="fill:#412a6c;fill-opacity:1;stroke:none;stroke-width:1.20869;stroke-opacity:1" /><path
   class="st7"
   d="m 13.624071,63.539975 c 4.713876,0 9.548621,0 14.262498,0 2.296504,0 2.296504,-3.626059 0,-3.626059 -4.713877,0 -9.548622,0 -14.262498,0 -2.296504,0 -2.296504,3.626059 0,3.626059 z"
   id="path45"
   style="fill:#412a6c;fill-opacity:1;stroke:none;stroke-width:1.20869;stroke-opacity:1" />
</svg>
