<?xml version="1.0" encoding="UTF-8" standalone="no"?>
<svg
   xmlns:dc="http://purl.org/dc/elements/1.1/"
   xmlns:cc="http://creativecommons.org/ns#"
   xmlns:rdf="http://www.w3.org/1999/02/22-rdf-syntax-ns#"
   xmlns:svg="http://www.w3.org/2000/svg"
   xmlns="http://www.w3.org/2000/svg"
   xmlns:sodipodi="http://sodipodi.sourceforge.net/DTD/sodipodi-0.dtd"
   xmlns:inkscape="http://www.inkscape.org/namespaces/inkscape"
   viewBox="0 0 93.62 60.01"
   version="1.1"
   id="svg1924"
   sodipodi:docname="implement.svg"
   inkscape:version="1.0.2 (e86c870879, 2021-01-15)">
  <metadata
     id="metadata1928">
    <rdf:RDF>
      <cc:Work
         rdf:about="">
        <dc:format>image/svg+xml</dc:format>
        <dc:type
           rdf:resource="http://purl.org/dc/dcmitype/StillImage" />
      </cc:Work>
    </rdf:RDF>
  </metadata>
  <sodipodi:namedview
     pagecolor="#ffffff"
     bordercolor="#666666"
     borderopacity="1"
     objecttolerance="10"
     gridtolerance="10"
     guidetolerance="10"
     inkscape:pageopacity="0"
     inkscape:pageshadow="2"
     inkscape:window-width="1269"
     inkscape:window-height="924"
     id="namedview1926"
     showgrid="false"
     inkscape:zoom="6.3287757"
     inkscape:cx="31.049667"
     inkscape:cy="30.17785"
     inkscape:window-x="0"
     inkscape:window-y="27"
     inkscape:window-maximized="0"
     inkscape:current-layer="svg1924" />
  <defs
     id="defs1908">
    <style
       id="style1906">.cls-1{fill:#607882;}.cls-2,.cls-3{fill:none;stroke-miterlimit:10;stroke-width:3px;}.cls-2{stroke:#9eb99d;}.cls-3{stroke:#607882;}</style>
  </defs>
  <path
     class="cls-1"
     d="M 58.06,10.41 44.52,17 43.29,17.6 C 43.16,17.41 43.02,17.17 42.86,16.89 42.7,16.61 42.49,16.19 42.32,15.8 a 16.7,16.7 0 0 1 -0.78,-2.08 46.75,46.75 0 0 1 8.15,-2.41 45.94,45.94 0 0 1 8.37,-0.9 z"
     id="path1910"
     style="fill:#412a6c;fill-opacity:1" />
  <path
     class="cls-2"
     d="m 45.77,16.69 7.32,15.73 c 14,-7.57 21.82,-11.29 26.42,-13.26 a 18,18 0 0 0 3,-1.61 C 88,14 90.53,8.18 91.81,3.71 88,2.11 82.35,0.52 76.32,2.25 a 18.69,18.69 0 0 0 -2.77,1 C 65.44,7 51.38,13.92 45.77,16.69 Z"
     id="path1912"
     style="stroke:#46aebb;stroke-opacity:1" />
  <path
     class="cls-1"
     d="m 62.28,18.33 q -4.16,2.25 -8.54,4.49 -3.85,2 -7.62,3.77 c -0.46,-0.77 -0.93,-1.61 -1.39,-2.54 -0.46,-0.93 -0.77,-1.64 -1.07,-2.38 a 67.93,67.93 0 0 1 9,-3.42 72,72 0 0 1 8.45,-2 z"
     id="path1914"
     style="fill:#412a6c;fill-opacity:1" />
  <path
     class="cls-1"
     d="m 66.91,25.42 -16.4,7.93 c 0.28,0.6 0.57,1.21 0.89,1.84 q 0.69,1.39 1.38,2.64 a 93.23,93.23 0 0 0 8.14,-5.52 c 2.47,-1.88 4.71,-3.78 6.73,-5.64 z"
     id="path1916"
     style="fill:#412a6c;fill-opacity:1" />
  <path
     class="cls-1"
     d="M 75.51,2.5 A 19.48,19.48 0 0 1 80,1.56 a 19.29,19.29 0 0 1 3.59,0 q -0.89,3.47 -1.76,7 A 7.78,7.78 0 0 1 78.71,7.56 6.16,6.16 0 0 1 76.53,5.65 5.85,5.85 0 0 1 75.51,2.5 Z"
     id="path1918"
     style="fill:#2e737c;fill-opacity:1" />
  <path
     class="cls-3"
     d="m 57.52,52.74 c 0.41,-1.26 1.09,-4 -0.25,-6 -2.26,-3.42 -8.51,-2.37 -10.75,-2 -7.94,1.33 -8.52,7 -16,10.75 C 24.34,58.6 13.46,60.63 6.77,54.74 1.64,50.22 0.74,42.59 2,37 3.25,31.56 7.46,24.16 13.25,23.5 c 6.3,-0.71 9.16,6.23 18,6.75 a 20,20 0 0 0 10.78,-2.67"
     id="path1920"
     style="fill:none;fill-opacity:1;stroke:#412a6c;stroke-opacity:1" />
</svg>
