<?xml version="1.0" encoding="UTF-8" standalone="no"?>
<svg
   xmlns:dc="http://purl.org/dc/elements/1.1/"
   xmlns:cc="http://creativecommons.org/ns#"
   xmlns:rdf="http://www.w3.org/1999/02/22-rdf-syntax-ns#"
   xmlns:svg="http://www.w3.org/2000/svg"
   xmlns="http://www.w3.org/2000/svg"
   xmlns:sodipodi="http://sodipodi.sourceforge.net/DTD/sodipodi-0.dtd"
   xmlns:inkscape="http://www.inkscape.org/namespaces/inkscape"
   width="2.3858166in"
   height="2.3038192in"
   viewBox="0 0 715.74356 691.14439"
   version="1.1"
   id="svg1064"
   sodipodi:docname="instagram.svg"
   inkscape:version="1.0.2 (e86c870879, 2021-01-15)">
  <metadata
     id="metadata1070">
    <rdf:RDF>
      <cc:Work
         rdf:about="">
        <dc:format>image/svg+xml</dc:format>
        <dc:type
           rdf:resource="http://purl.org/dc/dcmitype/StillImage" />
        <dc:title />
      </cc:Work>
    </rdf:RDF>
  </metadata>
  <defs
     id="defs1068" />
  <sodipodi:namedview
     pagecolor="#939393"
     bordercolor="#666666"
     borderopacity="1"
     objecttolerance="10"
     gridtolerance="10"
     guidetolerance="10"
     inkscape:pageopacity="0"
     inkscape:pageshadow="2"
     inkscape:window-width="1821"
     inkscape:window-height="1173"
     id="namedview1066"
     showgrid="false"
     inkscape:pagecheckerboard="true"
     inkscape:zoom="1.2466406"
     inkscape:cx="455.05679"
     inkscape:cy="26.853076"
     inkscape:window-x="0"
     inkscape:window-y="27"
     inkscape:window-maximized="0"
     inkscape:current-layer="svg1064"
     inkscape:document-rotation="0" />
  <path
     id="Selection"
     fill="none"
     stroke="black"
     stroke-width="0.740315"
     d="m 260.79151,159.51069 c -14.94697,3.45727 -22.39454,4.98972 -36.27545,12.35587 -22.52779,11.96349 -39.46621,32.64049 -48.15751,56.42683 -2.8058,7.66966 -5.8707,19.2704 -5.88551,27.39166 0,0 0,63.66712 0,63.66712 0,0 0,122.89233 0,122.89233 0.0148,8.12126 3.07971,19.722 5.88551,27.39167 10.64573,29.14621 32.83298,52.20703 62.2235,62.6973 8.10645,2.89463 16.47201,6.13721 25.17071,6.15202 0,0 192.48198,0 192.48198,0 8.6987,-0.0148 17.06426,-3.25739 25.17072,-6.15202 29.39051,-10.49027 51.57776,-33.55109 62.22349,-62.6973 2.85022,-7.78812 5.87071,-16.07225 5.88551,-24.43041 0,0 0,-192.48198 0,-192.48198 -0.0148,-10.55689 -6.17422,-26.79941 -10.91965,-36.27544 -12.11896,-24.1861 -32.6405,-41.87964 -57.92967,-51.11877 -7.66966,-2.8058 -19.2704,-5.8707 -27.39166,-5.81888 0,0 -43.67861,0 -43.67861,0 0,0 -78.47341,0 -78.47341,0 0,0 -45.89956,0 -45.89956,0 0,0 -24.43039,0 -24.43039,0 z m 7.40315,34.0619 c 0,0 60.70585,0 60.70585,0 0,0 117.71013,0 117.71013,0 36.47533,-0.0148 68.7901,32.29997 68.84932,68.7753 0,0 0,173.23377 0,173.23377 -0.0592,36.47534 -32.37399,68.7901 -68.84932,68.84932 0,0 -173.23378,0 -173.23378,0 -36.54196,-0.0592 -68.79009,-32.30735 -68.84932,-68.84932 0,0 0,-112.52791 0,-112.52791 0,0 0,-62.18649 0,-62.18649 0.28873,-24.13429 16.22031,-47.58007 37.01577,-58.99573 8.49882,-4.66398 17.16791,-6.71466 26.65135,-8.29894 z m 190.26103,28.99816 c -5.79668,1.20671 -10.46806,2.99827 -14.73969,7.2699 -9.57967,9.57967 -8.88377,26.72538 0.79955,35.98672 4.30863,4.11615 10.29038,6.18163 16.16108,6.64803 2.28757,0.17768 5.90031,-0.459 8.14346,-1.06605 21.136,-5.66342 24.31197,-35.57215 5.18221,-45.84033 -3.2944,-1.76194 -7.36613,-2.90944 -11.10473,-2.99827 -1.76935,-0.2369 -2.72435,-0.0962 -4.44188,0 z m -109.56667,28.82788 c -13.59219,2.21354 -23.25331,4.51591 -35.53513,11.17876 -8.08425,4.38266 -16.4202,10.31999 -22.92016,16.82736 -15.99821,15.99821 -28.12458,41.50208 -28.16159,64.37781 -0.0222,12.71123 0.0518,22.41676 4.08654,34.79483 9.70553,29.76808 30.90075,51.9109 60.32088,62.6899 7.42537,2.72435 18.767,5.32286 26.65135,5.41911 20.48453,0.23689 34.84664,-1.32517 53.3027,-11.33423 49.60113,-26.88826 65.99171,-89.42268 37.16383,-137.46915 -4.65659,-7.7659 -11.0455,-15.89457 -17.91563,-21.78007 -8.79494,-7.53642 -17.33078,-13.3775 -28.13198,-17.75277 -9.79437,-3.96068 -21.97996,-7.09222 -32.57387,-6.95155 0,0 -16.28694,0 -16.28694,0 z m 5.18221,34.11372 c 7.7659,-0.7255 15.42076,0.11105 22.94977,2.11731 6.67764,1.78416 12.79265,4.67138 18.50789,8.52842 32.53685,21.95776 37.1194,65.50311 12.14857,95.00466 -5.28585,6.24827 -13.52556,12.32625 -21.03236,15.65027 -9.52785,4.21979 -18.49307,5.93733 -28.87229,5.81888 -6.52958,-0.0814 -15.39116,-2.18393 -21.46915,-4.58996 -34.89846,-13.82908 -49.79361,-54.67968 -33.1143,-87.94945 10.45325,-20.86208 28.56136,-31.17467 50.88187,-34.58013 z"
     style="fill:#ffffff;fill-opacity:1;stroke:none" />
  <ellipse
     style="opacity:0.241835;fill:none;stroke:#ffffff;stroke-width:62.4999;stroke-linecap:round;stroke-linejoin:round;stroke-miterlimit:4;stroke-dasharray:none;stroke-dashoffset:14.211;stroke-opacity:1"
     id="path68"
     cx="357.87177"
     cy="345.57217"
     rx="326.62183"
     ry="314.32224" />
</svg>
