<?xml version="1.0" encoding="UTF-8" standalone="no"?>
<svg
   xmlns:dc="http://purl.org/dc/elements/1.1/"
   xmlns:cc="http://creativecommons.org/ns#"
   xmlns:rdf="http://www.w3.org/1999/02/22-rdf-syntax-ns#"
   xmlns:svg="http://www.w3.org/2000/svg"
   xmlns="http://www.w3.org/2000/svg"
   xmlns:sodipodi="http://sodipodi.sourceforge.net/DTD/sodipodi-0.dtd"
   xmlns:inkscape="http://www.inkscape.org/namespaces/inkscape"
   width="16.504"
   height="16.504"
   viewBox="0 0 16.504 16.504"
   version="1.1"
   id="svg12"
   sodipodi:docname="small-pin.svg"
   inkscape:version="1.0.2 (e86c870879, 2021-01-15)">
  <metadata
     id="metadata16">
    <rdf:RDF>
      <cc:Work
         rdf:about="">
        <dc:format>image/svg+xml</dc:format>
        <dc:type
           rdf:resource="http://purl.org/dc/dcmitype/StillImage" />
        <dc:title></dc:title>
      </cc:Work>
    </rdf:RDF>
  </metadata>
  <sodipodi:namedview
     pagecolor="#ffffff"
     bordercolor="#666666"
     borderopacity="1"
     objecttolerance="10"
     gridtolerance="10"
     guidetolerance="10"
     inkscape:pageopacity="0"
     inkscape:pageshadow="2"
     inkscape:window-width="1780"
     inkscape:window-height="1262"
     id="namedview14"
     showgrid="false"
     inkscape:zoom="49.503152"
     inkscape:cx="6.888"
     inkscape:cy="8.2519999"
     inkscape:window-x="0"
     inkscape:window-y="27"
     inkscape:window-maximized="0"
     inkscape:current-layer="svg12" />
  <defs
     id="defs4">
    <style
       id="style2">.a{fill:none;stroke:#000;stroke-linecap:round;stroke-linejoin:round;stroke-width:1.5px;}</style>
  </defs>
  <g
     transform="translate(-2.4310119,-0.75)"
     id="g10">
    <path
       class="a"
       d="m 16.776,7.638 c 0,4.774 -6.138,8.866 -6.138,8.866 0,0 -6.138,-4.092 -6.138,-8.866 a 6.138,6.138 0 1 1 12.276,0 z"
       id="path6" />
    <path
       class="a"
       d="M 17.592,12.546 A 2.046,2.046 0 1 1 15.546,10.5 2.046,2.046 0 0 1 17.592,12.546 Z"
       transform="translate(-4.908,-4.908)"
       id="path8" />
  </g>
</svg>
